^F:\THECOLLECTORTWO\THE COLLECTOR\THE COLLECTOR\DEBUG\ITEM.OBJ|F:\THECOLLECTORTWO\THE COLLECTOR\THE COLLECTOR\DEBUG\MAIN.OBJ|F:\THECOLLECTORTWO\THE COLLECTOR\THE COLLECTOR\DEBUG\PLAYER.OBJ
F:\THECOLLECTORTWO\THE COLLECTOR\DEBUG\THE COLLECTOR.EXE
F:\THECOLLECTORTWO\THE COLLECTOR\DEBUG\THE COLLECTOR.ILK
F:\THECOLLECTORTWO\THE COLLECTOR\DEBUG\THE COLLECTOR.PDB
